{
  "project_info": {
    "project_number": "761291295952",
    "firebase_url": "https://zebra-runner-luke.firebaseio.com",
    "project_id": "zebra-runner-luke",
    "storage_bucket": "zebra-runner-luke.appspot.com"
  },
  "client": [
    {
      "client_info": {
        "mobilesdk_app_id": "1:761291295952:android:eca63b4cbaf00fde",
        "android_client_info": {
          "package_name": "com.LukeWalton.Zeb"
        }
      },
      "oauth_client": [
        {
          "client_id": "761291295952-uuk3en915jcrnk3a90f2b97arr4dhugl.apps.googleusercontent.com",
          "client_type": 3
        }
      ],
      "api_key": [
        {
          "current_key": "AIzaSyCcR18qu-8m15bQYAV66FgpHU3iKQhjGWE"
        }
      ],
      "services": {
        "analytics_service": {
          "status": 1
        },
        "appinvite_service": {
          "status": 1,
          "other_platform_oauth_client": []
        },
        "ads_service": {
          "status": 2
        }
      }
    },
    {
      "client_info": {
        "mobilesdk_app_id": "1:761291295952:android:af4b86641629bd50",
        "android_client_info": {
          "package_name": "com.LukeWraRunneralton.Zeb"
        }
      },
      "oauth_client": [
        {
          "client_id": "761291295952-uuk3en915jcrnk3a90f2b97arr4dhugl.apps.googleusercontent.com",
          "client_type": 3
        }
      ],
      "api_key": [
        {
          "current_key": "AIzaSyCcR18qu-8m15bQYAV66FgpHU3iKQhjGWE"
        }
      ],
      "services": {
        "analytics_service": {
          "status": 1
        },
        "appinvite_service": {
          "status": 1,
          "other_platform_oauth_client": []
        },
        "ads_service": {
          "status": 2
        }
      }
    }
  ],
  "configuration_version": "1"
}